﻿District IRN,District Name,County,Region,Overall Rating,Achievement Component Star Rating,Progress Component Star Rating,Gap Closing Component Star Rating,Graduation Component Star Rating,Early Literacy Component Star Rating,College Career Workforce Military Readiness Component Star Rating
000442,Manchester Local,Adams,Region 14,NR,3,2,2,3,2,NR
043489,Akron City,Summit,Region 8,NR,2,2,3,1,1,NR
043497,Alliance City,Stark,Region 9,NR,2,3,4,3,2,NR
043505,Ashland City,Ashland,Region 7,NR,4,1,5,4,3,NR
043513,Ashtabula Area City,Ashtabula,Region 5,NR,2,3,3,1,1,NR
043521,Athens City,Athens,Region 16,NR,3,5,5,3,2,NR
043539,Barberton City,Summit,Region 8,NR,3,3,4,1,2,NR
043547,Bay Village City,Cuyahoga,Region 3,NR,5,4,5,5,4,NR
043554,Beachwood City,Cuyahoga,Region 3,NR,5,4,5,5,5,NR
043562,Bedford City,Cuyahoga,Region 3,NR,2,4,4,1,2,NR
043570,Bellaire Local,Belmont,Region 12,NR,3,1,4,2,3,NR
043588,Bellefontaine City,Logan,Region 6,NR,3,3,5,5,3,NR
043596,Bellevue City,Huron,Region 2,NR,4,4,5,5,3,NR
043604,Belpre City,Washington,Region 16,NR,3,1,2,5,3,NR
043612,Berea City,Cuyahoga,Region 3,NR,3,3,4,2,3,NR
043620,Bexley City,Franklin,Region 11,NR,5,5,5,5,3,NR
043638,Bowling Green City School District,Wood,Region 1,NR,3,4,5,4,2,NR
043646,Brecksville-Broadview Heights City,Cuyahoga,Region 3,NR,5,5,5,5,4,NR
043653,Brooklyn City,Cuyahoga,Region 3,NR,3,5,3,5,2,NR
043661,Brunswick City,Medina,Region 8,NR,4,3,4,5,4,NR
043679,Bryan City,Williams,Region 1,NR,4,1,5,4,3,NR
043687,Bucyrus City,Crawford,Region 7,NR,2,2,3,2,1,NR
043695,Cambridge City,Guernsey,Region 12,NR,2,2,2,1,2,NR
043703,Campbell City,Mahoning,Region 5,NR,2,4,3,2,2,NR
043711,Canton City,Stark,Region 9,NR,1,1,2,1,1,NR
043729,Celina City,Mercer,Region 6,NR,3,1,3,2,2,NR
043737,Centerville City,Montgomery,Region 10,NR,4,5,5,5,3,NR
043745,Chillicothe City,Ross,Region 15,NR,2,2,2,2,1,NR
043752,Cincinnati Public Schools,Hamilton,Region 13,NR,2,2,2,1,2,NR
043760,Circleville City,Pickaway,Region 11,NR,2,4,4,3,2,NR
043778,Claymont City,Tuscarawas,Region 12,NR,3,3,5,2,2,NR
043786,Cleveland Municipal,Cuyahoga,Region 3,NR,2,4,4,1,1,NR
043794,Cleveland Heights-University Heights City,Cuyahoga,Region 3,NR,2,3,4,2,2,NR
043802,Columbus City School District,Franklin,Region 11,NR,2,3,3,1,1,NR
043810,Conneaut Area City,Ashtabula,Region 5,NR,2,3,4,2,2,NR
043828,Coshocton City,Coshocton,Region 12,NR,3,1,4,4,2,NR
043836,Cuyahoga Falls City,Summit,Region 8,NR,3,1,2,2,3,NR
043844,Dayton City,Montgomery,Region 10,NR,1,2,2,1,1,NR
043851,Deer Park Community City,Hamilton,Region 13,NR,3,1,4,4,3,NR
043869,Defiance City,Defiance,Region 1,NR,3,2,4,5,3,NR
043877,Delaware City,Delaware,Region 11,NR,3,5,5,4,3,NR
043885,Delphos City,Allen,Region 6,NR,4,1,4,1,4,NR
043893,Dover City,Tuscarawas,Region 12,NR,4,3,5,1,3,NR
043901,East Cleveland City School District,Cuyahoga,Region 3,NR,1,1,2,1,1,NR
043919,East Liverpool City,Columbiana,Region 5,NR,2,1,3,2,1,NR
043927,East Palestine City,Columbiana,Region 5,NR,3,1,2,3,3,NR
043935,Eaton Community City,Preble,Region 10,NR,4,3,5,3,3,NR
043943,Elyria City Schools,Lorain,Region 2,NR,2,4,3,2,1,NR
043950,Euclid City,Cuyahoga,Region 3,NR,2,4,3,1,1,NR
043968,Fairborn City,Greene,Region 10,NR,3,4,5,3,2,NR
043976,Fairview Park City,Cuyahoga,Region 3,NR,4,5,5,4,4,NR
043984,Findlay City,Hancock,Region 1,NR,3,2,4,4,2,NR
043992,Fostoria City,Seneca,Region 1,NR,2,2,2,3,1,NR
044008,Franklin City,Warren,Region 13,NR,3,4,5,4,3,NR
044016,Fremont City,Sandusky,Region 1,NR,2,3,4,4,2,NR
044024,Galion City,Crawford,Region 7,NR,3,3,5,4,2,NR
044032,Gallipolis City,Gallia,Region 16,NR,2,1,2,1,3,NR
044040,Garfield Heights City Schools,Cuyahoga,Region 3,NR,1,3,1,2,1,NR
044057,Geneva Area City,Ashtabula,Region 5,NR,3,3,3,3,3,NR
044065,Girard City School District,Trumbull,Region 5,NR,3,2,4,4,3,NR
044073,Grandview Heights Schools,Franklin,Region 11,NR,5,3,5,5,4,NR
044081,Winton Woods City,Hamilton,Region 13,NR,2,1,3,2,1,NR
044099,Greenville City,Darke,Region 10,NR,3,3,4,2,2,NR
044107,Hamilton City,Butler,Region 13,NR,3,4,4,1,2,NR
044115,Heath City,Licking,Region 11,NR,4,3,4,4,3,NR
044123,Hillsboro City,Highland,Region 14,NR,4,3,5,3,3,NR
044131,Huron City Schools,Erie,Region 2,NR,4,3,4,4,4,NR
044149,Ironton City School District,Lawrence,Region 15,NR,3,1,4,3,3,NR
044156,Jackson City,Jackson,Region 16,NR,4,3,5,3,3,NR
044164,Kent City,Portage,Region 8,NR,3,5,5,4,2,NR
044172,Kenton City,Hardin,Region 6,NR,3,1,2,4,2,NR
044180,Kettering City School District,Montgomery,Region 10,NR,4,5,5,4,4,NR
044198,Lakewood City,Cuyahoga,Region 3,NR,4,4,5,3,3,NR
044206,Lancaster City,Fairfield,Region 11,NR,3,5,5,3,2,NR
044214,Lebanon City,Warren,Region 13,NR,4,2,5,4,4,NR
044222,Lima City,Allen,Region 6,NR,2,1,3,1,1,NR
044230,Lockland Local,Hamilton,Region 13,NR,1,1,2,1,1,NR
044248,Logan-Hocking Local,Hocking,Region 16,NR,4,2,5,4,4,NR
044255,London City,Madison,Region 11,NR,3,2,3,4,2,NR
044263,Lorain City,Lorain,Region 2,NR,1,4,4,1,1,NR
044271,Loveland City,Hamilton,Region 13,NR,5,5,5,5,5,NR
044289,Madeira City,Hamilton,Region 13,NR,5,5,5,5,5,NR
044297,Mansfield City,Richland,Region 7,NR,2,3,3,1,1,NR
044305,Maple Heights City,Cuyahoga,Region 3,NR,2,5,4,4,1,NR
044313,Mariemont City,Hamilton,Region 13,NR,5,4,5,5,5,NR
044321,Marietta City,Washington,Region 16,NR,2,2,3,2,3,NR
044339,Marion City,Marion,Region 7,NR,2,2,3,3,1,NR
044347,Martins Ferry City,Belmont,Region 12,NR,3,1,4,2,4,NR
044354,Massillon City,Stark,Region 9,NR,3,2,3,2,2,NR
044362,Maumee City,Lucas,Region 1,NR,4,5,5,5,2,NR
044370,Mayfield City,Cuyahoga,Region 3,NR,4,5,5,5,3,NR
044388,Medina City SD,Medina,Region 8,NR,4,5,5,5,3,NR
044396,Miamisburg City,Montgomery,Region 10,NR,3,3,4,3,2,NR
044404,Middletown City,Butler,Region 13,NR,2,4,4,2,1,NR
044412,Mt Healthy City,Hamilton,Region 13,NR,1,2,2,1,1,NR
044420,Mount Vernon City,Knox,Region 7,NR,4,4,4,3,3,NR
044438,Napoleon Area City,Henry,Region 1,NR,4,2,5,5,3,NR
044446,Nelsonville-York City,Athens,Region 16,NR,2,2,4,3,3,NR
044453,Newark City,Licking,Region 11,NR,3,1,3,1,3,NR
044461,New Boston Local,Scioto,Region 15,NR,3,5,3,2,2,NR
044479,New Lexington School District,Perry,Region 16,NR,3,1,3,4,3,NR
044487,New Philadelphia City,Tuscarawas,Region 12,NR,3,3,3,1,3,NR
044495,Niles City,Trumbull,Region 5,NR,3,3,4,3,2,NR
044503,North Canton City,Stark,Region 9,NR,5,3,5,5,4,NR
044511,North College Hill City,Hamilton,Region 13,NR,2,3,2,1,1,NR
044529,North Olmsted City,Cuyahoga,Region 3,NR,3,4,5,4,3,NR
044537,North Ridgeville City,Lorain,Region 2,NR,4,5,5,3,3,NR
044545,North Royalton City,Cuyahoga,Region 3,NR,5,4,5,4,3,NR
044552,Norton City,Summit,Region 8,NR,4,3,5,3,4,NR
044560,Norwalk City,Huron,Region 2,NR,4,1,5,3,3,NR
044578,Norwood City,Hamilton,Region 13,NR,3,3,4,2,2,NR
044586,Oakwood City,Montgomery,Region 10,NR,5,5,5,5,4,NR
044594,Oberlin City Schools,Lorain,Region 2,NR,3,4,4,4,3,NR
044602,Oregon City,Lucas,Region 1,NR,3,2,3,3,3,NR
044610,Orrville City,Wayne,Region 9,NR,4,4,5,4,2,NR
044628,Painesville City Local,Lake,Region 4,NR,2,2,3,1,2,NR
044636,Parma City,Cuyahoga,Region 3,NR,3,4,4,2,2,NR
044644,Piqua City,Miami,Region 10,NR,3,2,3,3,2,NR
044651,Port Clinton City,Ottawa,Region 1,NR,3,3,5,4,2,NR
044669,Portsmouth City,Scioto,Region 15,NR,2,2,4,3,1,NR
044677,Princeton City,Hamilton,Region 13,NR,2,5,5,2,2,NR
044685,Ravenna City,Portage,Region 8,NR,2,1,3,1,2,NR
044693,Reading Community City,Hamilton,Region 13,NR,3,1,3,2,2,NR
044701,Rocky River City,Cuyahoga,Region 3,NR,5,5,5,5,4,NR
044719,St Bernard-Elmwood Place City,Hamilton,Region 13,NR,2,1,3,4,2,NR
044727,St Marys City,Auglaize,Region 6,NR,4,1,4,5,3,NR
044735,Salem City,Columbiana,Region 5,NR,3,3,4,2,2,NR
044743,Sandusky City,Erie,Region 2,NR,2,2,2,4,1,NR
044750,Shaker Heights City,Cuyahoga,Region 3,NR,3,2,5,4,3,NR
044768,Sheffield-Sheffield Lake City,Lorain,Region 2,NR,3,5,5,4,2,NR
044776,Shelby City,Richland,Region 7,NR,4,3,5,3,3,NR
044784,Sidney City,Shelby,Region 6,NR,3,1,4,3,3,NR
044792,South Euclid-Lyndhurst City,Cuyahoga,Region 3,NR,2,4,5,2,2,NR
044800,South-Western City,Franklin,Region 11,NR,3,5,5,2,2,NR
044818,Springfield City School District,Clark,Region 10,NR,2,1,1,1,1,NR
044826,Steubenville City,Jefferson,Region 12,NR,5,5,5,5,5,NR
044834,Stow-Munroe Falls City School District,Summit,Region 8,NR,4,4,5,4,3,NR
044842,Strongsville City,Cuyahoga,Region 3,NR,5,5,5,4,4,NR
044859,Struthers City,Mahoning,Region 5,NR,3,4,5,3,2,NR
044867,Sycamore Community City,Hamilton,Region 13,NR,5,5,5,5,5,NR
044875,Sylvania Schools,Lucas,Region 1,NR,4,5,5,4,3,NR
044883,Tallmadge City,Summit,Region 8,NR,4,5,5,5,2,NR
044891,Tiffin City Schools,Seneca,Region 7,NR,3,2,3,4,3,NR
044909,Toledo City,Lucas,Region 1,NR,2,4,3,1,1,NR
044917,Toronto City,Jefferson,Region 12,NR,3,3,3,4,3,NR
044925,Troy City,Miami,Region 10,NR,4,5,5,4,3,NR
044933,Upper Arlington City,Franklin,Region 11,NR,5,5,5,5,5,NR
044941,Urbana City,Champaign,Region 6,NR,3,3,3,2,2,NR
044958,Vandalia-Butler City,Montgomery,Region 10,NR,4,4,5,4,3,NR
044966,Van Wert City,Van Wert,Region 1,NR,3,3,4,5,3,NR
044974,Wadsworth City,Medina,Region 8,NR,4,3,4,4,4,NR
044982,Wapakoneta City,Auglaize,Region 6,NR,4,2,5,4,2,NR
044990,Warren City,Trumbull,Region 5,NR,2,2,3,2,1,NR
045005,Warrensville Heights City,Cuyahoga,Region 3,NR,2,4,5,4,2,NR
045013,Washington Court House City,Fayette,Region 14,NR,3,1,3,3,3,NR
045021,Wellston City,Jackson,Region 16,NR,2,3,4,3,1,NR
045039,Wellsville Local,Columbiana,Region 5,NR,2,1,3,3,2,NR
045047,Westerville City,Franklin,Region 11,NR,4,4,5,3,3,NR
045054,West Carrollton City,Montgomery,Region 10,NR,2,4,4,2,3,NR
045062,Westlake City,Cuyahoga,Region 3,NR,5,4,5,4,4,NR
045070,Whitehall City,Franklin,Region 11,NR,2,5,5,2,1,NR
045088,Wickliffe City,Lake,Region 4,NR,3,3,4,5,2,NR
045096,Willard City,Huron,Region 7,NR,2,3,2,2,1,NR
045104,Willoughby-Eastlake City,Lake,Region 4,NR,3,3,5,4,3,NR
045112,Wilmington City,Clinton,Region 14,NR,3,1,2,2,2,NR
045120,Wooster City,Wayne,Region 9,NR,3,3,4,3,3,NR
045138,Worthington City,Franklin,Region 11,NR,4,5,5,4,4,NR
045146,Wyoming City,Hamilton,Region 13,NR,5,5,5,5,4,NR
045153,Xenia Community City,Greene,Region 10,NR,3,2,4,2,3,NR
045161,Youngstown City,Mahoning,Region 5,NR,1,2,3,2,1,NR
045179,Zanesville City,Muskingum,Region 12,NR,2,1,2,3,2,NR
045187,Ada Exempted Village,Hardin,Region 6,NR,4,3,5,5,3,NR
045195,Amherst Exempted Village,Lorain,Region 2,NR,4,2,5,4,4,NR
045203,Barnesville Exempted Village,Belmont,Region 12,NR,3,3,4,4,2,NR
045211,Bluffton Exempted Village,Allen,Region 6,NR,5,1,4,5,4,NR
045229,Bradford Exempted Village,Miami,Region 10,NR,2,1,2,4,3,NR
045237,Bridgeport Exempted Village,Belmont,Region 12,NR,3,2,5,4,2,NR
045245,Harrison Hills City,Harrison,Region 12,NR,2,1,3,4,3,NR
045252,Caldwell Exempted Village,Noble,Region 12,NR,2,2,2,4,2,NR
045260,Carey Exempted Village Schools,Wyandot,Region 7,NR,3,3,3,5,2,NR
045278,Carrollton Exempted Village,Carroll,Region 12,NR,3,4,5,4,2,NR
045286,Chagrin Falls Exempted Village,Cuyahoga,Region 3,NR,5,5,5,5,5,NR
045294,Chesapeake Union Exempted Village,Lawrence,Region 15,NR,3,2,4,4,3,NR
045302,Clyde-Green Springs Exempted Village,Sandusky,Region 1,NR,3,2,4,5,3,NR
045310,Coldwater Exempted Village,Mercer,Region 6,NR,5,3,5,5,3,NR
045328,Columbiana Exempted Village,Columbiana,Region 5,NR,4,3,5,5,3,NR
045336,Covington Exempted Village,Miami,Region 10,NR,4,2,5,5,3,NR
045344,Crestline Exempted Village,Crawford,Region 7,NR,2,1,3,1,1,NR
045351,Crooksville Exempted Village,Perry,Region 16,NR,2,2,3,4,1,NR
045369,Fairport Harbor Exempted Village,Lake,Region 4,NR,2,2,2,3,2,NR
045377,Georgetown Exempted Village,Brown,Region 14,NR,4,3,3,5,2,NR
045385,Gibsonburg Exempted Village,Sandusky,Region 1,NR,3,1,4,4,3,NR
045393,Granville Exempted Village,Licking,Region 11,NR,5,4,5,5,5,NR
045401,Greenfield Exempted Village,Highland,Region 14,NR,3,2,2,5,2,NR
045419,Hicksville Exempted Village,Defiance,Region 1,NR,5,5,5,5,4,NR
045427,Hubbard Exempted Village,Trumbull,Region 5,NR,4,3,5,4,3,NR
045435,Indian Hill Exempted Village,Hamilton,Region 13,NR,5,2,5,5,5,NR
045443,Leetonia Exempted Village School District,Columbiana,Region 5,NR,3,3,5,4,2,NR
045450,Lisbon Exempted Village,Columbiana,Region 5,NR,3,1,2,4,3,NR
045468,Loudonville-Perrysville Exempted Village,Ashland,Region 7,NR,3,2,3,4,3,NR
045476,Marysville Exempted Village,Union,Region 11,NR,4,3,5,5,3,NR
045484,Mechanicsburg Exempted Village,Champaign,Region 6,NR,4,3,5,5,3,NR
045492,Mentor Exempted Village,Lake,Region 4,NR,4,2,5,4,3,NR
045500,Milford Exempted Village,Clermont,Region 13,NR,4,4,5,5,3,NR
045518,Milton-Union Exempted Village,Miami,Region 10,NR,3,2,5,3,3,NR
045526,Montpelier Exempted Village,Williams,Region 1,NR,3,3,3,4,2,NR
045534,Mount Gilead Exempted Village,Morrow,Region 7,NR,3,5,3,3,2,NR
045542,Newcomerstown Exempted Village,Tuscarawas,Region 12,NR,2,1,4,5,3,NR
045559,New Richmond Exempted Village,Clermont,Region 13,NR,3,3,5,4,3,NR
045567,Newton Falls Exempted Village,Trumbull,Region 5,NR,2,3,3,2,2,NR
045575,Paulding Exempted Village,Paulding,Region 1,NR,3,1,2,3,5,NR
045583,Perrysburg Exempted Village,Wood,Region 1,NR,5,5,5,5,3,NR
045591,Rittman Exempted Village,Wayne,Region 9,NR,4,5,5,5,2,NR
045609,Rossford Exempted Village,Wood,Region 1,NR,3,4,5,4,2,NR
045617,Tipp City Exempted Village,Miami,Region 10,NR,5,4,4,5,4,NR
045625,Upper Sandusky Exempted Village,Wyandot,Region 7,NR,4,1,4,3,3,NR
045633,Versailles Exempted Village,Darke,Region 10,NR,5,5,5,5,3,NR
045641,Wauseon Exempted Village,Fulton,Region 1,NR,4,3,5,4,3,NR
045658,Wellington Exempted Village,Lorain,Region 2,NR,3,2,4,5,3,NR
045666,Windham Exempted Village,Portage,Region 8,NR,2,4,4,2,1,NR
045674,Yellow Springs Exempted Village,Greene,Region 10,NR,4,2,4,5,3,NR
045757,Allen East Local,Allen,Region 6,NR,4,2,5,4,4,NR
045765,Bath Local,Allen,Region 6,NR,4,3,5,3,3,NR
045773,Elida Local,Allen,Region 6,NR,4,3,4,2,2,NR
045781,Perry Local,Allen,Region 6,NR,3,1,3,3,3,NR
045799,Shawnee Local,Allen,Region 6,NR,4,3,5,4,5,NR
045807,Spencerville Local,Allen,Region 6,NR,4,2,4,5,4,NR
045823,Hillsdale Local,Ashland,Region 7,NR,4,4,4,3,4,NR
045831,Mapleton Local,Ashland,Region 7,NR,3,1,2,5,2,NR
045856,Buckeye Local,Ashtabula,Region 5,NR,3,4,3,3,3,NR
045864,Grand Valley Local,Ashtabula,Region 5,NR,3,1,4,4,5,NR
045872,Jefferson Area Local,Ashtabula,Region 5,NR,3,3,4,5,2,NR
045880,Pymatuning Valley Local,Ashtabula,Region 5,NR,3,2,4,4,2,NR
045906,Alexander Local,Athens,Region 16,NR,3,5,5,3,2,NR
045914,Federal Hocking Local,Athens,Region 16,NR,2,3,3,3,2,NR
045922,Trimble Local,Athens,Region 16,NR,2,3,3,2,1,NR
045948,Minster Local,Auglaize,Region 6,NR,5,5,5,5,5,NR
045955,New Bremen Local,Auglaize,Region 6,NR,5,3,5,5,4,NR
045963,New Knoxville Local,Auglaize,Region 6,NR,5,1,5,5,5,NR
045971,Waynesfield-Goshen Local,Auglaize,Region 6,NR,3,3,5,5,3,NR
045997,St Clairsville-Richland City,Belmont,Region 12,NR,4,3,5,5,4,NR
046003,Shadyside Local,Belmont,Region 12,NR,4,3,4,3,3,NR
046011,Union Local,Belmont,Region 12,NR,3,1,2,2,2,NR
046037,Eastern Local School District,Brown,Region 14,NR,3,4,4,4,3,NR
046045,Fayetteville-Perry Local,Brown,Region 14,NR,3,3,5,3,2,NR
046060,Western Brown Local,Brown,Region 14,NR,3,2,3,3,3,NR
046078,Ripley-Union-Lewis-Huntington Local,Brown,Region 14,NR,3,2,3,3,3,NR
046094,Edgewood City,Butler,Region 13,NR,3,1,4,3,3,NR
046102,Fairfield City,Butler,Region 13,NR,3,4,5,3,3,NR
046110,Lakota Local,Butler,Region 13,NR,4,2,4,4,3,NR
046128,Madison Local,Butler,Region 13,NR,3,2,4,5,3,NR
046136,New Miami Local,Butler,Region 13,NR,2,3,2,2,2,NR
046144,Ross Local,Butler,Region 13,NR,4,4,5,5,4,NR
046151,Talawanda City,Butler,Region 13,NR,4,3,5,4,3,NR
046177,Brown Local,Carroll,Region 12,NR,3,1,3,4,3,NR
046193,Graham Local,Champaign,Region 6,NR,3,2,3,3,3,NR
046201,Triad Local,Champaign,Region 6,NR,4,3,5,4,3,NR
046219,West Liberty-Salem Local,Champaign,Region 6,NR,4,2,4,5,3,NR
046235,Greenon Local,Clark,Region 10,NR,3,2,3,3,3,NR
046243,Tecumseh Local,Clark,Region 10,NR,3,4,4,2,2,NR
046250,Northeastern Local,Clark,Region 10,NR,3,3,5,4,3,NR
046268,Northwestern Local,Clark,Region 10,NR,3,3,5,4,3,NR
046276,Southeastern Local,Clark,Region 10,NR,4,3,5,4,3,NR
046284,Clark-Shawnee Local,Clark,Region 10,NR,3,5,5,4,2,NR
046300,Batavia Local,Clermont,Region 13,NR,3,2,4,4,2,NR
046318,Bethel-Tate Local,Clermont,Region 13,NR,4,3,4,4,2,NR
046326,Clermont Northeastern Local,Clermont,Region 13,NR,3,4,3,4,2,NR
046334,Felicity-Franklin Local,Clermont,Region 13,NR,3,1,4,4,3,NR
046342,Goshen Local,Clermont,Region 13,NR,4,3,5,5,3,NR
046359,West Clermont Local,Clermont,Region 13,NR,3,2,4,3,2,NR
046367,Williamsburg Local,Clermont,Region 13,NR,4,2,5,4,3,NR
046383,Blanchester Local,Clinton,Region 14,NR,3,1,4,4,2,NR
046391,Clinton-Massie Local,Clinton,Region 14,NR,4,3,5,4,2,NR
046409,East Clinton Local,Clinton,Region 14,NR,3,2,3,2,2,NR
046425,Beaver Local,Columbiana,Region 5,NR,4,4,5,5,2,NR
046433,Crestview Local,Columbiana,Region 5,NR,4,4,5,5,3,NR
046441,Southern Local,Columbiana,Region 5,NR,2,1,3,4,3,NR
046458,United Local,Columbiana,Region 5,NR,3,1,3,5,2,NR
046474,Ridgewood Local,Coshocton,Region 12,NR,4,5,5,5,3,NR
046482,River View Local,Coshocton,Region 12,NR,3,2,4,3,3,NR
046508,Buckeye Central Local,Crawford,Region 7,NR,4,3,5,5,3,NR
046516,Colonel Crawford Local,Crawford,Region 7,NR,4,5,4,4,3,NR
046524,Wynford Local,Crawford,Region 7,NR,3,3,2,4,3,NR
046557,Cuyahoga Heights Local,Cuyahoga,Region 3,NR,5,5,5,4,3,NR
046565,Independence Local,Cuyahoga,Region 3,NR,5,2,5,5,4,NR
046573,Olmsted Falls City,Cuyahoga,Region 3,NR,4,2,5,5,5,NR
046581,Orange City,Cuyahoga,Region 3,NR,5,5,5,5,4,NR
046599,Richmond Heights Local,Cuyahoga,Region 3,NR,2,5,4,4,1,NR
046607,Solon City,Cuyahoga,Region 3,NR,5,5,5,5,5,NR
046623,Ansonia Local,Darke,Region 10,NR,4,3,4,5,3,NR
046631,Arcanum-Butler Local,Darke,Region 10,NR,4,2,5,5,3,NR
046649,Franklin Monroe Local,Darke,Region 10,NR,4,1,5,5,4,NR
046672,Mississinawa Valley Local,Darke,Region 10,NR,4,3,5,5,3,NR
046680,Tri-Village Local,Darke,Region 10,NR,4,5,5,5,3,NR
046706,Ayersville Local,Defiance,Region 1,NR,5,4,5,5,3,NR
046714,Central Local,Defiance,Region 1,NR,4,3,4,4,3,NR
046722,Northeastern Local,Defiance,Region 1,NR,4,3,3,5,2,NR
046748,Big Walnut Local,Delaware,Region 11,NR,4,3,5,5,3,NR
046755,Buckeye Valley Local,Delaware,Region 11,NR,4,4,5,5,3,NR
046763,Olentangy Local,Delaware,Region 11,NR,5,5,5,5,5,NR
046789,Edison Local (formerly Berlin-Milan),Erie,Region 2,NR,4,3,5,5,4,NR
046805,Margaretta Local,Erie,Region 2,NR,3,2,5,5,3,NR
046813,Perkins Local,Erie,Region 2,NR,3,4,3,5,2,NR
046821,Vermilion Local,Erie,Region 2,NR,4,3,4,5,2,NR
046847,Amanda-Clearcreek Local,Fairfield,Region 11,NR,3,2,4,2,2,NR
046854,Berne Union Local,Fairfield,Region 11,NR,3,3,4,5,3,NR
046862,Bloom-Carroll Local,Fairfield,Region 11,NR,4,4,5,4,4,NR
046870,Fairfield Union Local,Fairfield,Region 11,NR,4,4,5,5,3,NR
046888,Liberty Union-Thurston Local,Fairfield,Region 11,NR,3,1,3,4,2,NR
046896,Pickerington Local,Fairfield,Region 11,NR,4,5,5,4,3,NR
046904,Walnut Township Local,Fairfield,Region 11,NR,4,3,5,3,2,NR
046920,Miami Trace Local,Fayette,Region 14,NR,4,3,5,4,3,NR
046946,Canal Winchester Local,Franklin,Region 11,NR,3,4,5,4,3,NR
046953,Hamilton Local,Franklin,Region 11,NR,3,5,4,2,3,NR
046961,Gahanna-Jefferson City,Franklin,Region 11,NR,4,4,5,4,3,NR
046979,Groveport Madison Local,Franklin,Region 11,NR,2,5,4,1,2,NR
046995,New Albany-Plain Local,Franklin,Region 11,NR,5,5,5,5,5,NR
047001,Reynoldsburg City,Franklin,Region 11,NR,2,2,4,4,2,NR
047019,Hilliard City,Franklin,Region 11,NR,4,5,5,3,3,NR
047027,Dublin City,Franklin,Region 11,NR,4,5,5,5,3,NR
047043,Archbold-Area Local,Fulton,Region 1,NR,5,2,5,5,4,NR
047050,Evergreen Local,Fulton,Region 1,NR,4,2,3,4,4,NR
047068,Fayette Local,Fulton,Region 1,NR,3,1,2,5,3,NR
047076,Pettisville Local,Fulton,Region 1,NR,5,3,5,5,4,NR
047084,Pike-Delta-York Local,Fulton,Region 1,NR,4,3,4,3,3,NR
047092,Swanton Local,Fulton,Region 1,NR,4,3,5,3,3,NR
047167,Berkshire Local,Geauga,Region 4,NR,3,2,4,4,3,NR
047175,Cardinal Local,Geauga,Region 4,NR,3,2,5,4,5,NR
047183,Chardon Local,Geauga,Region 4,NR,5,1,5,5,5,NR
047191,Kenston Local,Geauga,Region 4,NR,5,4,5,5,4,NR
047225,West Geauga Local,Geauga,Region 4,NR,5,5,5,4,5,NR
047241,Beavercreek City,Greene,Region 10,NR,5,4,5,5,4,NR
047258,Cedar Cliff Local,Greene,Region 10,NR,4,3,5,4,4,NR
047266,Greeneview Local,Greene,Region 10,NR,4,1,4,4,4,NR
047274,Bellbrook-Sugarcreek Local,Greene,Region 10,NR,5,5,5,5,4,NR
047308,Rolling Hills Local,Guernsey,Region 12,NR,3,2,3,5,2,NR
047332,Finneytown Local,Hamilton,Region 13,NR,2,3,3,4,1,NR
047340,Forest Hills Local,Hamilton,Region 13,NR,5,4,5,5,4,NR
047365,Northwest Local,Hamilton,Region 13,NR,2,3,4,4,2,NR
047373,Oak Hills Local,Hamilton,Region 13,NR,4,2,4,4,4,NR
047381,Southwest Local,Hamilton,Region 13,NR,4,1,4,4,3,NR
047399,Three Rivers Local,Hamilton,Region 13,NR,4,5,5,5,3,NR
047415,Arcadia Local,Hancock,Region 1,NR,4,1,3,5,5,NR
047423,Arlington Local,Hancock,Region 1,NR,4,3,4,5,5,NR
047431,Cory-Rawson Local,Hancock,Region 1,NR,3,3,3,4,3,NR
047449,Liberty-Benton Local,Hancock,Region 1,NR,5,5,5,5,4,NR
047456,McComb Local,Hancock,Region 1,NR,3,4,3,5,3,NR
047464,Van Buren Local,Hancock,Region 1,NR,4,1,5,4,3,NR
047472,Vanlue Local,Hancock,Region 1,NR,3,3,3,5,NR,NR
047498,Hardin Northern Local,Hardin,Region 6,NR,4,2,3,4,3,NR
047506,Ridgemont Local,Hardin,Region 6,NR,3,2,3,5,2,NR
047514,Riverdale Local,Hancock,Region 6,NR,3,1,3,5,4,NR
047522,Upper Scioto Valley Local,Hardin,Region 6,NR,2,2,2,2,3,NR
047548,Conotton Valley Union Local,Harrison,Region 12,NR,2,3,2,5,2,NR
047571,Holgate Local,Henry,Region 1,NR,4,1,5,5,2,NR
047589,Liberty Center Local,Henry,Region 1,NR,4,3,5,4,4,NR
047597,Patrick Henry Local,Henry,Region 1,NR,4,2,5,4,4,NR
047613,Bright Local,Highland,Region 14,NR,4,3,5,5,3,NR
047621,Fairfield Local,Highland,Region 14,NR,4,5,5,5,4,NR
047639,Lynchburg-Clay Local,Highland,Region 14,NR,4,3,5,4,4,NR
047688,East Holmes Local,Holmes,Region 12,NR,5,1,5,4,3,NR
047696,West Holmes Local,Holmes,Region 9,NR,4,2,3,3,2,NR
047712,Monroeville Local,Huron,Region 2,NR,3,2,4,5,2,NR
047720,New London Local,Huron,Region 2,NR,3,3,3,4,2,NR
047738,South Central Local,Huron,Region 2,NR,3,4,4,5,2,NR
047746,Western Reserve Local,Huron,Region 2,NR,3,2,4,4,3,NR
047761,Oak Hill Union Local,Jackson,Region 16,NR,4,3,3,2,3,NR
047787,Buckeye Local,Jefferson,Region 12,NR,3,1,3,4,3,NR
047795,Edison Local,Jefferson,Region 12,NR,3,1,5,4,3,NR
047803,Indian Creek Local,Jefferson,Region 12,NR,3,1,3,3,3,NR
047829,Centerburg Local,Knox,Region 7,NR,4,2,4,4,3,NR
047837,Danville Local,Knox,Region 7,NR,3,1,3,4,3,NR
047845,East Knox Local,Knox,Region 7,NR,3,1,2,4,2,NR
047852,Fredericktown Local,Knox,Region 7,NR,4,3,5,5,3,NR
047878,Kirtland Local,Lake,Region 4,NR,5,4,5,4,4,NR
047886,Madison Local,Lake,Region 4,NR,3,2,4,3,2,NR
047894,Riverside Local,Lake,Region 4,NR,4,2,4,3,4,NR
047902,Perry Local,Lake,Region 4,NR,4,4,5,4,3,NR
047928,Dawson-Bryant Local,Lawrence,Region 15,NR,3,2,3,5,4,NR
047936,Fairland Local,Lawrence,Region 15,NR,3,1,5,5,3,NR
047944,Rock Hill Local,Lawrence,Region 15,NR,3,3,4,4,2,NR
047951,South Point Local,Lawrence,Region 15,NR,3,1,3,4,3,NR
047969,Symmes Valley Local,Lawrence,Region 15,NR,3,2,3,5,4,NR
047985,Johnstown-Monroe Local,Licking,Region 11,NR,4,2,5,5,4,NR
047993,Lakewood Local,Licking,Region 11,NR,3,5,5,3,2,NR
048009,Licking Heights Local,Licking,Region 11,NR,3,5,5,4,2,NR
048017,Licking Valley Local,Licking,Region 11,NR,3,2,3,4,3,NR
048025,North Fork Local,Licking,Region 11,NR,3,2,3,3,3,NR
048033,Northridge Local,Licking,Region 11,NR,3,3,5,3,3,NR
048041,Southwest Licking Local,Licking,Region 11,NR,4,4,5,4,3,NR
048074,Benjamin Logan Local,Logan,Region 6,NR,4,4,5,4,3,NR
048082,Indian Lake Local,Logan,Region 6,NR,4,5,5,5,3,NR
048090,Riverside Local,Logan,Region 6,NR,4,3,4,5,3,NR
048116,Avon Local,Lorain,Region 2,NR,5,4,5,5,5,NR
048124,Avon Lake City,Lorain,Region 2,NR,5,3,5,5,5,NR
048132,Clearview Local,Lorain,Region 2,NR,2,5,5,3,2,NR
048140,Columbia Local,Lorain,Region 2,NR,4,4,5,5,3,NR
048157,Firelands Local,Lorain,Region 2,NR,4,2,4,5,3,NR
048165,Keystone Local,Lorain,Region 2,NR,4,4,5,5,2,NR
048173,Midview Local,Lorain,Region 2,NR,4,4,5,4,4,NR
048207,Anthony Wayne Local,Lucas,Region 1,NR,5,1,4,5,5,NR
048215,Ottawa Hills Local,Lucas,Region 1,NR,5,5,5,5,4,NR
048223,Springfield Local,Lucas,Region 1,NR,3,4,5,3,2,NR
048231,Washington Local,Lucas,Region 1,NR,2,2,3,2,1,NR
048256,Jefferson Local,Madison,Region 11,NR,3,3,4,4,3,NR
048264,Jonathan Alder Local,Madison,Region 11,NR,4,2,4,4,3,NR
048272,Madison-Plains Local,Madison,Region 11,NR,4,3,5,3,3,NR
048298,Austintown Local Schools,Mahoning,Region 5,NR,4,5,5,4,3,NR
048306,Boardman Local,Mahoning,Region 5,NR,4,3,5,4,3,NR
048314,Canfield Local,Mahoning,Region 5,NR,5,4,5,5,4,NR
048322,Jackson-Milton Local,Mahoning,Region 5,NR,4,3,5,5,3,NR
048330,Lowellville Local,Mahoning,Region 5,NR,3,1,4,5,3,NR
048348,Poland Local,Mahoning,Region 5,NR,4,2,5,5,4,NR
048355,Sebring Local,Mahoning,Region 5,NR,3,3,5,4,3,NR
048363,South Range Local,Mahoning,Region 5,NR,5,3,5,5,4,NR
048371,Springfield Local,Mahoning,Region 5,NR,4,2,5,4,4,NR
048389,West Branch Local,Mahoning,Region 5,NR,4,1,5,5,3,NR
048397,Western Reserve Local,Mahoning,Region 5,NR,4,5,5,5,4,NR
048413,Elgin Local,Marion,Region 7,NR,3,5,3,4,2,NR
048421,Pleasant Local,Marion,Region 7,NR,3,2,4,5,2,NR
048439,Ridgedale Local,Marion,Region 7,NR,3,3,2,5,2,NR
048447,River Valley Local,Marion,Region 7,NR,3,3,4,5,2,NR
048462,Black River Local,Medina,Region 7,NR,4,3,5,5,2,NR
048470,Buckeye Local,Medina,Region 8,NR,4,3,5,5,3,NR
048488,Cloverleaf Local,Medina,Region 8,NR,4,4,5,4,3,NR
048496,Highland Local,Medina,Region 8,NR,5,5,5,5,5,NR
048512,Eastern Local,Meigs,Region 16,NR,3,1,3,5,3,NR
048520,Meigs Local,Meigs,Region 16,NR,2,4,3,2,2,NR
048538,Southern Local,Meigs,Region 16,NR,3,5,5,4,3,NR
048553,Marion Local,Mercer,Region 6,NR,5,3,5,5,5,NR
048579,Parkway Local,Mercer,Region 6,NR,4,1,5,4,3,NR
048587,St Henry Consolidated Local,Mercer,Region 6,NR,5,1,4,5,4,NR
048595,Fort Recovery Local,Mercer,Region 6,NR,5,5,5,4,4,NR
048611,Bethel Local,Miami,Region 10,NR,4,4,5,4,3,NR
048629,Miami East Local,Miami,Region 10,NR,5,5,5,5,3,NR
048637,Newton Local,Miami,Region 10,NR,5,1,4,4,5,NR
048652,Switzerland of Ohio Local,Monroe,Region 12,NR,3,1,2,3,2,NR
048678,Brookville Local,Montgomery,Region 10,NR,5,3,5,5,4,NR
048686,Jefferson Township Local,Montgomery,Region 10,NR,1,3,3,2,1,NR
048694,Trotwood-Madison City,Montgomery,Region 10,NR,1,1,2,2,1,NR
048702,Mad River Local,Montgomery,Region 10,NR,3,2,4,2,2,NR
048710,New Lebanon Local School District,Montgomery,Region 10,NR,3,2,2,3,4,NR
048728,Northmont City,Montgomery,Region 10,NR,4,5,5,4,3,NR
048736,Northridge Local,Montgomery,Region 10,NR,2,3,3,2,1,NR
048744,Valley View Local,Montgomery,Region 10,NR,4,2,3,4,2,NR
048751,Huber Heights City,Montgomery,Region 10,NR,2,2,3,2,2,NR
048777,Morgan Local,Morgan,Region 12,NR,3,2,3,2,2,NR
048793,Cardington-Lincoln Local,Morrow,Region 7,NR,3,1,4,2,2,NR
048801,Highland Local,Morrow,Region 7,NR,4,3,5,5,3,NR
048819,Northmor Local,Morrow,Region 7,NR,4,5,5,5,2,NR
048835,East Muskingum Local,Muskingum,Region 12,NR,4,4,5,5,4,NR
048843,Franklin Local,Muskingum,Region 12,NR,3,1,4,5,2,NR
048850,Maysville Local,Muskingum,Region 12,NR,3,3,4,4,3,NR
048876,Tri-Valley Local,Muskingum,Region 12,NR,4,1,4,4,3,NR
048884,West Muskingum Local,Muskingum,Region 12,NR,3,2,5,4,3,NR
048900,Noble Local,Noble,Region 12,NR,3,2,4,4,3,NR
048926,Benton Carroll Salem Local,Ottawa,Region 1,NR,5,3,5,5,4,NR
048934,Danbury Local,Ottawa,Region 1,NR,4,3,5,3,5,NR
048942,Genoa Area Local,Ottawa,Region 1,NR,4,1,5,5,3,NR
048975,Put-In-Bay Local,Ottawa,Region 1,NR,4,NR,5,NR,NR,NR
048991,Antwerp Local,Paulding,Region 1,NR,4,3,5,5,3,NR
049031,Wayne Trace Local,Paulding,Region 1,NR,4,3,5,5,3,NR
049056,Northern Local,Perry,Region 12,NR,4,3,4,5,3,NR
049064,Southern Local,Perry,Region 16,NR,2,3,3,3,3,NR
049080,Logan Elm Local,Pickaway,Region 11,NR,3,3,4,3,2,NR
049098,Teays Valley Local,Pickaway,Region 11,NR,4,1,5,3,3,NR
049106,Westfall Local,Pickaway,Region 11,NR,3,1,2,2,3,NR
049122,Eastern Local School District,Pike,Region 15,NR,3,2,4,2,2,NR
049130,Scioto Valley Local,Pike,Region 15,NR,2,4,4,4,1,NR
049148,Waverly City,Pike,Region 15,NR,2,1,4,5,1,NR
049155,Western Local,Pike,Region 15,NR,2,5,5,3,1,NR
049171,Aurora City,Portage,Region 8,NR,5,5,5,5,5,NR
049189,Crestwood Local,Portage,Region 8,NR,3,1,3,4,2,NR
049197,Field Local,Portage,Region 8,NR,4,3,4,4,2,NR
049205,James A Garfield Local,Portage,Region 8,NR,3,3,5,3,4,NR
049213,Rootstown Local,Portage,Region 8,NR,3,1,4,4,3,NR
049221,Southeast Local,Portage,Region 8,NR,4,3,4,4,2,NR
049239,Streetsboro City,Portage,Region 8,NR,3,5,4,3,2,NR
049247,Waterloo Local,Portage,Region 8,NR,3,3,3,3,2,NR
049270,National Trail Local,Preble,Region 10,NR,3,1,4,3,3,NR
049288,Preble Shawnee Local,Preble,Region 10,NR,2,2,2,5,2,NR
049296,Twin Valley Community Local,Preble,Region 10,NR,3,2,2,5,2,NR
049312,Columbus Grove Local,Putnam,Region 1,NR,4,5,5,5,4,NR
049320,Continental Local,Putnam,Region 1,NR,4,1,3,4,5,NR
049338,Jennings Local,Putnam,Region 1,NR,5,1,5,5,3,NR
049346,Kalida Local,Putnam,Region 1,NR,5,3,5,5,5,NR
049353,Leipsic Local,Putnam,Region 1,NR,4,3,5,4,3,NR
049361,Miller City-New Cleveland Local,Putnam,Region 1,NR,5,1,5,5,5,NR
049379,Ottawa-Glandorf Local,Putnam,Region 1,NR,4,2,4,4,3,NR
049387,Ottoville Local,Putnam,Region 1,NR,5,3,5,5,5,NR
049395,Pandora-Gilboa Local,Putnam,Region 1,NR,4,3,5,4,3,NR
049411,Clear Fork Valley Local,Richland,Region 7,NR,3,3,4,4,4,NR
049429,Crestview Local,Richland,Region 7,NR,3,1,3,4,4,NR
049437,Lexington Local,Richland,Region 7,NR,4,2,5,5,3,NR
049445,Lucas Local,Richland,Region 7,NR,4,3,4,5,2,NR
049452,Madison Local,Richland,Region 7,NR,3,3,4,4,2,NR
049460,Plymouth-Shiloh Local,Richland,Region 7,NR,3,5,5,5,2,NR
049478,Ontario Local,Richland,Region 7,NR,4,4,5,5,3,NR
049494,Adena Local,Ross,Region 15,NR,3,3,3,2,2,NR
049502,Huntington Local,Ross,Region 15,NR,2,4,3,1,2,NR
049510,Paint Valley Local,Ross,Region 15,NR,2,3,2,2,2,NR
049528,Southeastern Local,Ross,Region 15,NR,3,2,3,5,3,NR
049536,Union-Scioto Local,Ross,Region 15,NR,3,2,3,2,2,NR
049544,Zane Trace Local,Ross,Region 15,NR,3,1,3,3,3,NR
049569,Lakota Local,Sandusky,Region 1,NR,3,2,3,5,3,NR
049577,Woodmore Local,Sandusky,Region 1,NR,4,1,3,5,4,NR
049593,Bloom-Vernon Local,Scioto,Region 15,NR,4,5,3,2,3,NR
049601,Clay Local,Scioto,Region 15,NR,3,3,3,3,3,NR
049619,Green Local,Scioto,Region 15,NR,3,5,3,3,3,NR
049627,Minford Local,Scioto,Region 15,NR,3,3,3,3,2,NR
049635,Northwest Local,Scioto,Region 15,NR,3,5,3,4,3,NR
049643,Valley Local,Scioto,Region 15,NR,4,5,5,5,3,NR
049650,Washington-Nile Local,Scioto,Region 15,NR,3,3,4,3,2,NR
049668,Wheelersburg Local,Scioto,Region 15,NR,4,5,5,4,3,NR
049684,Seneca East Local,Seneca,Region 7,NR,4,3,5,5,5,NR
049700,Hopewell-Loudon Local,Seneca,Region 7,NR,4,5,5,4,4,NR
049718,New Riegel Local,Seneca,Region 7,NR,4,1,4,5,4,NR
049726,Old Fort Local,Seneca,Region 7,NR,4,3,4,4,3,NR
049759,Anna Local,Shelby,Region 6,NR,5,2,5,5,4,NR
049767,Botkins Local,Shelby,Region 6,NR,5,3,5,5,4,NR
049775,Fairlawn Local,Shelby,Region 6,NR,5,3,5,4,5,NR
049783,Fort Loramie Local,Shelby,Region 6,NR,5,3,5,5,5,NR
049791,Hardin-Houston Local,Shelby,Region 6,NR,4,3,4,4,3,NR
049809,Jackson Center Local,Shelby,Region 6,NR,5,5,5,4,5,NR
049817,Russia Local,Shelby,Region 6,NR,5,1,5,5,4,NR
049833,Canton Local,Stark,Region 9,NR,3,1,5,3,3,NR
049841,Fairless Local,Stark,Region 9,NR,3,3,4,4,3,NR
049858,Jackson Local,Stark,Region 9,NR,5,4,5,5,3,NR
049866,Lake Local,Stark,Region 9,NR,5,3,5,5,4,NR
049874,Louisville City,Stark,Region 9,NR,4,4,5,5,4,NR
049882,Marlington Local,Stark,Region 9,NR,4,3,5,4,3,NR
049890,Minerva Local,Stark,Region 9,NR,3,4,5,3,3,NR
049908,Northwest Local,Stark,Region 9,NR,5,4,5,5,5,NR
049916,Osnaburg Local,Stark,Region 9,NR,3,1,4,5,3,NR
049924,Perry Local,Stark,Region 9,NR,4,2,4,4,3,NR
049932,Plain Local,Stark,Region 9,NR,4,2,4,4,3,NR
049940,Sandy Valley Local,Stark,Region 9,NR,3,1,5,5,3,NR
049957,Tuslaw Local,Stark,Region 9,NR,5,3,5,5,3,NR
049973,Woodridge Local,Summit,Region 8,NR,3,5,5,4,2,NR
049981,Copley-Fairlawn City,Summit,Region 8,NR,5,2,5,4,3,NR
049999,Coventry Local,Summit,Region 8,NR,3,1,5,3,5,NR
050005,Manchester Local,Summit,Region 8,NR,4,1,5,4,5,NR
050013,Green Local,Summit,Region 8,NR,5,4,5,5,3,NR
050021,Hudson City,Summit,Region 8,NR,5,5,5,5,4,NR
050039,Mogadore Local,Summit,Region 8,NR,4,5,5,4,2,NR
050047,Nordonia Hills City,Summit,Region 8,NR,5,5,5,5,3,NR
050054,Revere Local,Summit,Region 8,NR,5,3,5,5,5,NR
050062,Springfield Local,Summit,Region 8,NR,3,3,3,3,2,NR
050070,Twinsburg City,Summit,Region 8,NR,4,4,5,5,3,NR
050096,Bloomfield-Mespo Local,Trumbull,Region 5,NR,3,3,3,3,2,NR
050112,Bristol Local,Trumbull,Region 5,NR,3,1,4,5,2,NR
050120,Brookfield Local,Trumbull,Region 5,NR,3,5,5,4,1,NR
050138,Champion Local,Trumbull,Region 5,NR,4,3,5,5,3,NR
050153,Mathews Local,Trumbull,Region 5,NR,4,3,4,5,2,NR
050161,Howland Local,Trumbull,Region 5,NR,4,4,5,4,4,NR
050179,Joseph Badger Local,Trumbull,Region 5,NR,3,5,4,4,3,NR
050187,Lakeview Local,Trumbull,Region 5,NR,5,3,5,5,5,NR
050195,Liberty Local,Trumbull,Region 5,NR,2,2,3,4,2,NR
050203,Lordstown Local,Trumbull,Region 5,NR,4,3,5,4,3,NR
050211,Maplewood Local,Trumbull,Region 5,NR,5,3,5,3,5,NR
050229,McDonald Local,Trumbull,Region 5,NR,4,5,5,5,2,NR
050237,Southington Local,Trumbull,Region 5,NR,4,3,4,2,3,NR
050245,LaBrae Local,Trumbull,Region 5,NR,3,2,5,5,2,NR
050252,Weathersfield Local,Trumbull,Region 5,NR,4,5,5,5,5,NR
050278,Garaway Local,Tuscarawas,Region 12,NR,4,3,5,5,3,NR
050286,Indian Valley Local,Tuscarawas,Region 12,NR,4,3,5,4,2,NR
050294,Strasburg-Franklin Local,Tuscarawas,Region 12,NR,4,3,5,4,3,NR
050302,Tuscarawas Valley Local,Tuscarawas,Region 12,NR,4,3,5,5,3,NR
050328,Fairbanks Local,Union,Region 11,NR,4,3,5,4,4,NR
050336,North Union Local School District,Union,Region 11,NR,4,4,5,5,3,NR
050351,Crestview Local,Van Wert,Region 1,NR,5,1,4,5,4,NR
050369,Lincolnview Local,Van Wert,Region 1,NR,4,3,5,5,2,NR
050393,Vinton County Local,Vinton,Region 16,NR,3,1,3,4,3,NR
050419,Carlisle Local,Warren,Region 13,NR,3,1,3,5,2,NR
050427,Springboro Community City,Warren,Region 13,NR,5,5,5,5,4,NR
050435,Kings Local,Warren,Region 13,NR,5,3,5,4,5,NR
050443,Little Miami Local,Warren,Region 13,NR,4,3,5,5,4,NR
050450,Mason City,Warren,Region 13,NR,5,4,5,5,3,NR
050468,Wayne Local,Warren,Region 13,NR,5,5,5,5,3,NR
050484,Fort Frye Local,Washington,Region 16,NR,4,2,5,5,4,NR
050492,Frontier Local,Washington,Region 16,NR,3,3,3,3,3,NR
050500,Warren Local,Washington,Region 16,NR,4,4,4,4,3,NR
050518,Wolf Creek Local,Washington,Region 16,NR,3,1,2,2,3,NR
050534,Chippewa Local,Wayne,Region 9,NR,5,3,5,5,3,NR
050542,Dalton Local,Wayne,Region 9,NR,5,3,5,3,4,NR
050559,Green Local,Wayne,Region 9,NR,4,5,5,5,3,NR
050567,Norwayne Local,Wayne,Region 9,NR,4,1,5,5,3,NR
050575,Northwestern Local,Wayne,Region 9,NR,4,2,4,4,3,NR
050583,Southeast Local,Wayne,Region 9,NR,4,5,5,5,2,NR
050591,Triway Local,Wayne,Region 9,NR,4,2,5,3,4,NR
050617,Edgerton Local,Williams,Region 1,NR,4,1,3,5,3,NR
050625,Edon Northwest Local,Williams,Region 1,NR,4,2,3,3,2,NR
050633,Millcreek-West Unity Local,Williams,Region 1,NR,4,3,3,4,3,NR
050641,North Central Local,Williams,Region 1,NR,3,1,3,4,3,NR
050658,Stryker Local,Williams,Region 1,NR,3,1,4,3,5,NR
050674,Eastwood Local,Wood,Region 1,NR,5,3,4,4,3,NR
050682,Elmwood Local,Wood,Region 1,NR,4,1,4,4,3,NR
050690,Lake Local,Wood,Region 1,NR,3,1,4,5,3,NR
050708,North Baltimore Local,Wood,Region 1,NR,3,1,3,5,3,NR
050716,Northwood Local Schools,Wood,Region 1,NR,3,5,4,5,2,NR
050724,Otsego Local,Wood,Region 1,NR,3,2,4,4,4,NR
050740,Mohawk Local,Wyandot,Region 7,NR,4,1,4,5,3,NR
061903,Adams County Ohio Valley Local,Adams,Region 14,NR,3,2,3,3,3,NR
065680,Gallia County Local,Gallia,Region 16,NR,2,2,4,2,2,NR
069682,East Guernsey Local,Guernsey,Region 12,NR,3,3,4,5,3,NR
091397,Tri-County North Local,Preble,Region 10,NR,3,1,5,5,4,NR
139303,Monroe Local,Butler,Region 13,NR,4,3,4,4,3,NR